%YAML 1.1
%TAG !u! tag:unity3d.com,2011:
--- !u!1045 &1
EditorBuildSettings:
  m_ObjectHideFlags: 0
  serializedVersion: 2
  m_Scenes:
  - enabled: 1
    path: Assets/Scenes/Menu.unity
    guid: d58477a57fb5f6d42b86fbed3bf3bee5
  - enabled: 1
    path: Assets/Scenes/Lesson1~2.unity
    guid: 9fc0d4010bbf28b4594072e72b8655ab
  - enabled: 1
    path: Assets/Scenes/Lesson3~4.unity
    guid: 0986a3e6e4e0fce4f82ed4a3341ab01b
  m_configObjects: {}
